<?xml version="1.0" encoding="UTF-8"?>
<svg xmlns="http://www.w3.org/2000/svg" xmlns:xlink="http://www.w3.org/1999/xlink" width="194.602pt" height="159.738pt" viewBox="0 0 194.602 159.738" version="1.1">
<defs>
<g>
<symbol overflow="visible" id="glyph0-0">
<path style="stroke:none;" d=""/>
</symbol>
<symbol overflow="visible" id="glyph0-1">
<path style="stroke:none;" d="M 3.671875 -2.546875 C 3.671875 -3.1875 3.625 -3.828125 3.34375 -4.421875 C 2.984375 -5.171875 2.328125 -5.3125 1.984375 -5.3125 C 1.515625 -5.3125 0.9375 -5.09375 0.609375 -4.359375 C 0.34375 -3.8125 0.3125 -3.1875 0.3125 -2.546875 C 0.3125 -1.953125 0.34375 -1.234375 0.671875 -0.625 C 1.015625 0.015625 1.59375 0.171875 1.984375 0.171875 C 2.421875 0.171875 3.015625 0.015625 3.375 -0.75 C 3.625 -1.296875 3.671875 -1.921875 3.671875 -2.546875 Z M 1.984375 0 C 1.671875 0 1.203125 -0.203125 1.0625 -0.96875 C 0.96875 -1.4375 0.96875 -2.171875 0.96875 -2.640625 C 0.96875 -3.15625 0.96875 -3.6875 1.03125 -4.109375 C 1.1875 -5.0625 1.78125 -5.125 1.984375 -5.125 C 2.25 -5.125 2.765625 -4.984375 2.921875 -4.203125 C 3 -3.75 3 -3.140625 3 -2.640625 C 3 -2.046875 3 -1.5 2.921875 -1 C 2.796875 -0.234375 2.34375 0 1.984375 0 Z M 1.984375 0 "/>
</symbol>
<symbol overflow="visible" id="glyph0-2">
<path style="stroke:none;" d="M 3.578125 -1.609375 C 3.578125 -2.546875 2.921875 -3.34375 2.0625 -3.34375 C 1.6875 -3.34375 1.34375 -3.21875 1.046875 -2.9375 L 1.046875 -4.5 C 1.21875 -4.453125 1.46875 -4.390625 1.734375 -4.390625 C 2.703125 -4.390625 3.265625 -5.109375 3.265625 -5.21875 C 3.265625 -5.265625 3.25 -5.3125 3.1875 -5.3125 C 3.171875 -5.3125 3.15625 -5.3125 3.125 -5.28125 C 2.96875 -5.21875 2.578125 -5.046875 2.046875 -5.046875 C 1.71875 -5.046875 1.359375 -5.109375 0.984375 -5.28125 C 0.921875 -5.296875 0.90625 -5.296875 0.890625 -5.296875 C 0.8125 -5.296875 0.8125 -5.234375 0.8125 -5.109375 L 0.8125 -2.75 C 0.8125 -2.609375 0.8125 -2.546875 0.921875 -2.546875 C 0.96875 -2.546875 0.984375 -2.5625 1.015625 -2.609375 C 1.109375 -2.734375 1.40625 -3.171875 2.046875 -3.171875 C 2.46875 -3.171875 2.65625 -2.8125 2.71875 -2.65625 C 2.859375 -2.359375 2.875 -2.0625 2.875 -1.65625 C 2.875 -1.375 2.875 -0.90625 2.671875 -0.5625 C 2.484375 -0.25 2.1875 -0.046875 1.828125 -0.046875 C 1.25 -0.046875 0.78125 -0.46875 0.65625 -0.9375 C 0.671875 -0.9375 0.703125 -0.921875 0.78125 -0.921875 C 1.046875 -0.921875 1.1875 -1.125 1.1875 -1.3125 C 1.1875 -1.5 1.046875 -1.703125 0.78125 -1.703125 C 0.671875 -1.703125 0.390625 -1.65625 0.390625 -1.28125 C 0.390625 -0.59375 0.953125 0.171875 1.84375 0.171875 C 2.765625 0.171875 3.578125 -0.59375 3.578125 -1.609375 Z M 3.578125 -1.609375 "/>
</symbol>
<symbol overflow="visible" id="glyph0-3">
<path style="stroke:none;" d="M 2.34375 -5.09375 C 2.34375 -5.296875 2.34375 -5.3125 2.15625 -5.3125 C 1.671875 -4.796875 0.96875 -4.796875 0.703125 -4.796875 L 0.703125 -4.546875 C 0.875 -4.546875 1.34375 -4.546875 1.75 -4.75 L 1.75 -0.625 C 1.75 -0.34375 1.734375 -0.25 1.015625 -0.25 L 0.75 -0.25 L 0.75 0 C 1.03125 -0.03125 1.734375 -0.03125 2.046875 -0.03125 C 2.359375 -0.03125 3.0625 -0.03125 3.34375 0 L 3.34375 -0.25 L 3.078125 -0.25 C 2.359375 -0.25 2.34375 -0.328125 2.34375 -0.625 Z M 2.34375 -5.09375 "/>
</symbol>
<symbol overflow="visible" id="glyph0-4">
<path style="stroke:none;" d="M 1.015625 -0.609375 L 1.859375 -1.4375 C 3.09375 -2.53125 3.578125 -2.96875 3.578125 -3.765625 C 3.578125 -4.671875 2.859375 -5.3125 1.890625 -5.3125 C 0.984375 -5.3125 0.390625 -4.578125 0.390625 -3.859375 C 0.390625 -3.421875 0.796875 -3.421875 0.828125 -3.421875 C 0.953125 -3.421875 1.234375 -3.515625 1.234375 -3.84375 C 1.234375 -4.046875 1.09375 -4.25 0.8125 -4.25 C 0.75 -4.25 0.734375 -4.25 0.703125 -4.25 C 0.890625 -4.765625 1.328125 -5.0625 1.78125 -5.0625 C 2.515625 -5.0625 2.859375 -4.421875 2.859375 -3.765625 C 2.859375 -3.125 2.453125 -2.5 2.015625 -2 L 0.484375 -0.296875 C 0.390625 -0.203125 0.390625 -0.1875 0.390625 0 L 3.359375 0 L 3.578125 -1.390625 L 3.375 -1.390625 C 3.34375 -1.140625 3.28125 -0.796875 3.203125 -0.671875 C 3.140625 -0.609375 2.625 -0.609375 2.453125 -0.609375 Z M 1.015625 -0.609375 "/>
</symbol>
<symbol overflow="visible" id="glyph0-5">
<path style="stroke:none;" d="M 2.28125 -1.875 C 2.53125 -2.171875 2.828125 -2.5625 3.015625 -2.765625 C 3.265625 -3.0625 3.59375 -3.171875 3.96875 -3.1875 L 3.96875 -3.4375 C 3.765625 -3.421875 3.515625 -3.40625 3.3125 -3.40625 C 3.078125 -3.40625 2.65625 -3.421875 2.546875 -3.4375 L 2.546875 -3.1875 C 2.71875 -3.171875 2.78125 -3.0625 2.78125 -2.9375 C 2.78125 -2.8125 2.703125 -2.703125 2.65625 -2.65625 L 2.171875 -2.046875 L 1.546875 -2.84375 C 1.46875 -2.921875 1.46875 -2.9375 1.46875 -2.984375 C 1.46875 -3.109375 1.59375 -3.171875 1.75 -3.1875 L 1.75 -3.4375 C 1.546875 -3.421875 1.015625 -3.40625 0.890625 -3.40625 C 0.71875 -3.40625 0.34375 -3.421875 0.140625 -3.4375 L 0.140625 -3.1875 C 0.6875 -3.1875 0.703125 -3.171875 1.078125 -2.703125 L 1.859375 -1.671875 L 1.109375 -0.71875 C 0.734375 -0.265625 0.265625 -0.25 0.09375 -0.25 L 0.09375 0 C 0.296875 -0.015625 0.546875 -0.03125 0.75 -0.03125 C 0.984375 -0.03125 1.328125 -0.015625 1.515625 0 L 1.515625 -0.25 C 1.34375 -0.265625 1.28125 -0.375 1.28125 -0.5 C 1.28125 -0.671875 1.515625 -0.9375 2 -1.5 L 2.609375 -0.703125 C 2.671875 -0.625 2.765625 -0.5 2.765625 -0.453125 C 2.765625 -0.375 2.703125 -0.25 2.484375 -0.25 L 2.484375 0 C 2.71875 -0.015625 3.171875 -0.03125 3.34375 -0.03125 C 3.5625 -0.03125 3.875 -0.015625 4.109375 0 L 4.109375 -0.25 C 3.6875 -0.25 3.53125 -0.265625 3.359375 -0.5 Z M 2.28125 -1.875 "/>
</symbol>
<symbol overflow="visible" id="glyph0-6">
<path style="stroke:none;" d="M 2.640625 1.90625 C 2.640625 1.890625 2.640625 1.875 2.5 1.734375 C 1.5 0.734375 1.25 -0.765625 1.25 -1.984375 C 1.25 -3.375 1.546875 -4.765625 2.53125 -5.765625 C 2.640625 -5.859375 2.640625 -5.875 2.640625 -5.890625 C 2.640625 -5.953125 2.609375 -5.96875 2.5625 -5.96875 C 2.484375 -5.96875 1.765625 -5.4375 1.296875 -4.421875 C 0.890625 -3.546875 0.78125 -2.65625 0.78125 -1.984375 C 0.78125 -1.375 0.875 -0.40625 1.3125 0.5 C 1.796875 1.46875 2.484375 1.984375 2.5625 1.984375 C 2.609375 1.984375 2.640625 1.96875 2.640625 1.90625 Z M 2.640625 1.90625 "/>
</symbol>
<symbol overflow="visible" id="glyph0-7">
<path style="stroke:none;" d="M 0.875 -2.734375 L 0.875 -0.609375 C 0.875 -0.25 0.78125 -0.25 0.25 -0.25 L 0.25 0 C 0.53125 -0.015625 0.9375 -0.03125 1.15625 -0.03125 C 1.359375 -0.03125 1.78125 -0.015625 2.046875 0 L 2.046875 -0.25 C 1.515625 -0.25 1.421875 -0.25 1.421875 -0.609375 L 1.421875 -2.078125 C 1.421875 -2.90625 1.984375 -3.34375 2.5 -3.34375 C 3 -3.34375 3.09375 -2.921875 3.09375 -2.46875 L 3.09375 -0.609375 C 3.09375 -0.25 3 -0.25 2.46875 -0.25 L 2.46875 0 C 2.75 -0.015625 3.15625 -0.03125 3.375 -0.03125 C 3.578125 -0.03125 4 -0.015625 4.265625 0 L 4.265625 -0.25 C 3.734375 -0.25 3.640625 -0.25 3.640625 -0.609375 L 3.640625 -2.078125 C 3.640625 -2.90625 4.203125 -3.34375 4.71875 -3.34375 C 5.21875 -3.34375 5.3125 -2.921875 5.3125 -2.46875 L 5.3125 -0.609375 C 5.3125 -0.25 5.21875 -0.25 4.6875 -0.25 L 4.6875 0 C 4.96875 -0.015625 5.375 -0.03125 5.59375 -0.03125 C 5.796875 -0.03125 6.203125 -0.015625 6.484375 0 L 6.484375 -0.25 C 6.0625 -0.25 5.859375 -0.25 5.859375 -0.484375 L 5.859375 -2.015625 C 5.859375 -2.6875 5.859375 -2.9375 5.609375 -3.234375 C 5.5 -3.359375 5.234375 -3.515625 4.765625 -3.515625 C 4.109375 -3.515625 3.75 -3.046875 3.625 -2.734375 C 3.5 -3.4375 2.921875 -3.515625 2.5625 -3.515625 C 1.96875 -3.515625 1.609375 -3.171875 1.375 -2.6875 L 1.375 -3.515625 L 0.25 -3.4375 L 0.25 -3.1875 C 0.8125 -3.1875 0.875 -3.125 0.875 -2.734375 Z M 0.875 -2.734375 "/>
</symbol>
<symbol overflow="visible" id="glyph0-8">
<path style="stroke:none;" d="M 2.296875 -1.984375 C 2.296875 -2.609375 2.21875 -3.578125 1.78125 -4.484375 C 1.296875 -5.453125 0.609375 -5.96875 0.53125 -5.96875 C 0.484375 -5.96875 0.453125 -5.9375 0.453125 -5.890625 C 0.453125 -5.875 0.453125 -5.859375 0.609375 -5.71875 C 1.390625 -4.921875 1.84375 -3.65625 1.84375 -1.984375 C 1.84375 -0.625 1.546875 0.765625 0.5625 1.78125 C 0.453125 1.875 0.453125 1.890625 0.453125 1.90625 C 0.453125 1.953125 0.484375 1.984375 0.53125 1.984375 C 0.609375 1.984375 1.328125 1.453125 1.796875 0.4375 C 2.203125 -0.4375 2.296875 -1.328125 2.296875 -1.984375 Z M 2.296875 -1.984375 "/>
</symbol>
<symbol overflow="visible" id="glyph0-9">
<path style="stroke:none;" d="M 3.171875 -5.546875 C 3.125 -5.65625 3.109375 -5.703125 2.984375 -5.703125 C 2.859375 -5.703125 2.84375 -5.65625 2.796875 -5.546875 L 1.140625 -0.78125 C 1 -0.375 0.6875 -0.25 0.25 -0.25 L 0.25 0 C 0.4375 -0.015625 0.78125 -0.03125 1.0625 -0.03125 C 1.3125 -0.03125 1.734375 -0.015625 1.984375 0 L 1.984375 -0.25 C 1.578125 -0.25 1.390625 -0.453125 1.390625 -0.65625 C 1.390625 -0.671875 1.390625 -0.75 1.40625 -0.765625 L 1.765625 -1.8125 L 3.734375 -1.8125 L 4.15625 -0.59375 C 4.171875 -0.5625 4.1875 -0.515625 4.1875 -0.484375 C 4.1875 -0.25 3.734375 -0.25 3.515625 -0.25 L 3.515625 0 C 3.8125 -0.03125 4.359375 -0.03125 4.671875 -0.03125 C 5.015625 -0.03125 5.375 -0.015625 5.71875 0 L 5.71875 -0.25 L 5.5625 -0.25 C 5.09375 -0.25 4.984375 -0.296875 4.890625 -0.5625 Z M 2.75 -4.65625 L 3.65625 -2.0625 L 1.859375 -2.0625 Z M 2.75 -4.65625 "/>
</symbol>
<symbol overflow="visible" id="glyph0-10">
<path style="stroke:none;" d="M 1.375 -3 L 1.375 -3.515625 L 0.21875 -3.4375 L 0.21875 -3.1875 C 0.78125 -3.1875 0.84375 -3.140625 0.84375 -2.78125 L 0.84375 0.9375 C 0.84375 1.296875 0.75 1.296875 0.21875 1.296875 L 0.21875 1.546875 C 0.5 1.53125 0.90625 1.515625 1.109375 1.515625 C 1.328125 1.515625 1.734375 1.53125 2.015625 1.546875 L 2.015625 1.296875 C 1.484375 1.296875 1.390625 1.296875 1.390625 0.9375 L 1.390625 -0.46875 C 1.4375 -0.34375 1.765625 0.09375 2.375 0.09375 C 3.328125 0.09375 4.15625 -0.6875 4.15625 -1.71875 C 4.15625 -2.734375 3.375 -3.515625 2.484375 -3.515625 C 1.859375 -3.515625 1.53125 -3.171875 1.375 -3 Z M 1.390625 -0.90625 L 1.390625 -2.6875 C 1.625 -3.09375 2.015625 -3.328125 2.421875 -3.328125 C 3 -3.328125 3.484375 -2.625 3.484375 -1.71875 C 3.484375 -0.75 2.9375 -0.09375 2.34375 -0.09375 C 2.03125 -0.09375 1.71875 -0.25 1.5 -0.578125 C 1.390625 -0.734375 1.390625 -0.75 1.390625 -0.90625 Z M 1.390625 -0.90625 "/>
</symbol>
<symbol overflow="visible" id="glyph0-11">
<path style="stroke:none;" d="M 1.328125 -2.640625 L 1.328125 -3.515625 L 0.21875 -3.4375 L 0.21875 -3.1875 C 0.78125 -3.1875 0.84375 -3.125 0.84375 -2.734375 L 0.84375 -0.609375 C 0.84375 -0.25 0.75 -0.25 0.21875 -0.25 L 0.21875 0 C 0.53125 -0.015625 0.90625 -0.03125 1.125 -0.03125 C 1.453125 -0.03125 1.828125 -0.03125 2.140625 0 L 2.140625 -0.25 L 1.96875 -0.25 C 1.390625 -0.25 1.375 -0.328125 1.375 -0.625 L 1.375 -1.84375 C 1.375 -2.640625 1.703125 -3.34375 2.3125 -3.34375 C 2.359375 -3.34375 2.375 -3.34375 2.40625 -3.34375 C 2.375 -3.328125 2.21875 -3.234375 2.21875 -3.03125 C 2.21875 -2.8125 2.375 -2.6875 2.5625 -2.6875 C 2.703125 -2.6875 2.90625 -2.78125 2.90625 -3.03125 C 2.90625 -3.296875 2.65625 -3.515625 2.3125 -3.515625 C 1.734375 -3.515625 1.4375 -2.984375 1.328125 -2.640625 Z M 1.328125 -2.640625 "/>
</symbol>
<symbol overflow="visible" id="glyph0-12">
<path style="stroke:none;" d="M 3.75 -1.703125 C 3.75 -2.71875 2.953125 -3.5625 1.984375 -3.5625 C 1 -3.5625 0.21875 -2.703125 0.21875 -1.703125 C 0.21875 -0.671875 1.046875 0.09375 1.984375 0.09375 C 2.953125 0.09375 3.75 -0.6875 3.75 -1.703125 Z M 1.984375 -0.109375 C 1.65625 -0.109375 1.296875 -0.28125 1.078125 -0.640625 C 0.890625 -1 0.890625 -1.484375 0.890625 -1.765625 C 0.890625 -2.078125 0.890625 -2.515625 1.078125 -2.859375 C 1.296875 -3.234375 1.671875 -3.390625 1.984375 -3.390625 C 2.328125 -3.390625 2.671875 -3.21875 2.890625 -2.875 C 3.09375 -2.53125 3.09375 -2.078125 3.09375 -1.765625 C 3.09375 -1.484375 3.09375 -1.046875 2.921875 -0.703125 C 2.734375 -0.34375 2.390625 -0.109375 1.984375 -0.109375 Z M 1.984375 -0.109375 "/>
</symbol>
<symbol overflow="visible" id="glyph0-13">
<path style="stroke:none;" d="M 1.40625 -3.515625 L 0.296875 -3.4375 L 0.296875 -3.1875 C 0.8125 -3.1875 0.890625 -3.140625 0.890625 -2.75 L 0.890625 -0.609375 C 0.890625 -0.25 0.796875 -0.25 0.265625 -0.25 L 0.265625 0 C 0.515625 -0.015625 0.953125 -0.03125 1.140625 -0.03125 C 1.421875 -0.03125 1.703125 -0.015625 1.96875 0 L 1.96875 -0.25 C 1.4375 -0.25 1.40625 -0.28125 1.40625 -0.59375 Z M 1.4375 -4.90625 C 1.4375 -5.15625 1.25 -5.328125 1.015625 -5.328125 C 0.765625 -5.328125 0.59375 -5.109375 0.59375 -4.90625 C 0.59375 -4.6875 0.765625 -4.484375 1.015625 -4.484375 C 1.25 -4.484375 1.4375 -4.65625 1.4375 -4.90625 Z M 1.4375 -4.90625 "/>
</symbol>
<symbol overflow="visible" id="glyph0-14">
<path style="stroke:none;" d="M 2.65625 -0.609375 C 2.6875 -0.28125 2.90625 0.046875 3.28125 0.046875 C 3.4375 0.046875 3.921875 -0.0625 3.921875 -0.703125 L 3.921875 -1.15625 L 3.734375 -1.15625 L 3.734375 -0.703125 C 3.734375 -0.25 3.53125 -0.203125 3.4375 -0.203125 C 3.171875 -0.203125 3.140625 -0.5625 3.140625 -0.59375 L 3.140625 -2.1875 C 3.140625 -2.53125 3.140625 -2.84375 2.859375 -3.125 C 2.546875 -3.4375 2.15625 -3.5625 1.765625 -3.5625 C 1.109375 -3.5625 0.5625 -3.203125 0.5625 -2.671875 C 0.5625 -2.4375 0.71875 -2.296875 0.9375 -2.296875 C 1.15625 -2.296875 1.296875 -2.453125 1.296875 -2.65625 C 1.296875 -2.75 1.265625 -3.015625 0.890625 -3.03125 C 1.109375 -3.3125 1.5 -3.390625 1.75 -3.390625 C 2.140625 -3.390625 2.59375 -3.078125 2.59375 -2.375 L 2.59375 -2.078125 C 2.1875 -2.0625 1.640625 -2.03125 1.125 -1.796875 C 0.53125 -1.515625 0.328125 -1.109375 0.328125 -0.75 C 0.328125 -0.109375 1.109375 0.09375 1.609375 0.09375 C 2.140625 0.09375 2.5 -0.234375 2.65625 -0.609375 Z M 2.59375 -1.90625 L 2.59375 -1.109375 C 2.59375 -0.359375 2.03125 -0.09375 1.671875 -0.09375 C 1.28125 -0.09375 0.953125 -0.359375 0.953125 -0.765625 C 0.953125 -1.203125 1.28125 -1.859375 2.59375 -1.90625 Z M 2.59375 -1.90625 "/>
</symbol>
<symbol overflow="visible" id="glyph0-15">
<path style="stroke:none;" d="M 1.375 -3.1875 L 2.515625 -3.1875 L 2.515625 -3.4375 L 1.375 -3.4375 L 1.375 -4.90625 L 1.171875 -4.90625 C 1.171875 -4.25 0.9375 -3.390625 0.15625 -3.359375 L 0.15625 -3.1875 L 0.828125 -3.1875 L 0.828125 -0.984375 C 0.828125 -0.015625 1.5625 0.09375 1.859375 0.09375 C 2.421875 0.09375 2.640625 -0.484375 2.640625 -0.984375 L 2.640625 -1.4375 L 2.453125 -1.4375 L 2.453125 -1 C 2.453125 -0.421875 2.203125 -0.109375 1.90625 -0.109375 C 1.375 -0.109375 1.375 -0.84375 1.375 -0.96875 Z M 1.375 -3.1875 "/>
</symbol>
<symbol overflow="visible" id="glyph0-16">
<path style="stroke:none;" d="M 0.875 -2.734375 L 0.875 -0.609375 C 0.875 -0.25 0.78125 -0.25 0.25 -0.25 L 0.25 0 C 0.53125 -0.015625 0.9375 -0.03125 1.15625 -0.03125 C 1.359375 -0.03125 1.78125 -0.015625 2.046875 0 L 2.046875 -0.25 C 1.515625 -0.25 1.421875 -0.25 1.421875 -0.609375 L 1.421875 -2.078125 C 1.421875 -2.90625 1.984375 -3.34375 2.5 -3.34375 C 3 -3.34375 3.09375 -2.921875 3.09375 -2.46875 L 3.09375 -0.609375 C 3.09375 -0.25 3 -0.25 2.46875 -0.25 L 2.46875 0 C 2.75 -0.015625 3.15625 -0.03125 3.375 -0.03125 C 3.578125 -0.03125 4 -0.015625 4.265625 0 L 4.265625 -0.25 C 3.84375 -0.25 3.65625 -0.25 3.640625 -0.484375 L 3.640625 -2.015625 C 3.640625 -2.6875 3.640625 -2.9375 3.390625 -3.234375 C 3.28125 -3.359375 3.015625 -3.515625 2.5625 -3.515625 C 1.96875 -3.515625 1.609375 -3.171875 1.375 -2.6875 L 1.375 -3.515625 L 0.25 -3.4375 L 0.25 -3.1875 C 0.8125 -3.1875 0.875 -3.125 0.875 -2.734375 Z M 0.875 -2.734375 "/>
</symbol>
<symbol overflow="visible" id="glyph0-17">
<path style="stroke:none;" d="M 1.078125 -0.625 C 1.078125 -0.328125 1.0625 -0.25 0.453125 -0.25 L 0.265625 -0.25 L 0.265625 0 L 4.859375 0 L 5.203125 -2.0625 L 5 -2.0625 C 4.796875 -0.828125 4.609375 -0.25 3.25 -0.25 L 2.1875 -0.25 C 1.8125 -0.25 1.796875 -0.296875 1.796875 -0.5625 L 1.796875 -2.6875 L 2.515625 -2.6875 C 3.28125 -2.6875 3.375 -2.4375 3.375 -1.765625 L 3.5625 -1.765625 L 3.5625 -3.875 L 3.375 -3.875 C 3.375 -3.1875 3.28125 -2.9375 2.515625 -2.9375 L 1.796875 -2.9375 L 1.796875 -4.859375 C 1.796875 -5.109375 1.8125 -5.171875 2.1875 -5.171875 L 3.21875 -5.171875 C 4.4375 -5.171875 4.640625 -4.734375 4.765625 -3.625 L 4.96875 -3.625 L 4.75 -5.421875 L 0.265625 -5.421875 L 0.265625 -5.171875 L 0.453125 -5.171875 C 1.0625 -5.171875 1.078125 -5.078125 1.078125 -4.796875 Z M 1.078125 -0.625 "/>
</symbol>
<symbol overflow="visible" id="glyph0-18">
<path style="stroke:none;" d="M 0.9375 -1.734375 C 0.9375 -3.03125 1.578125 -3.375 2.015625 -3.375 C 2.078125 -3.375 2.578125 -3.359375 2.859375 -3.078125 C 2.53125 -3.046875 2.484375 -2.8125 2.484375 -2.703125 C 2.484375 -2.5 2.625 -2.34375 2.859375 -2.34375 C 3.0625 -2.34375 3.21875 -2.484375 3.21875 -2.71875 C 3.21875 -3.265625 2.609375 -3.5625 2 -3.5625 C 1 -3.5625 0.265625 -2.703125 0.265625 -1.71875 C 0.265625 -0.703125 1.0625 0.09375 1.984375 0.09375 C 3.046875 0.09375 3.3125 -0.875 3.3125 -0.953125 C 3.3125 -1.03125 3.234375 -1.03125 3.203125 -1.03125 C 3.125 -1.03125 3.109375 -1 3.09375 -0.953125 C 2.875 -0.203125 2.34375 -0.109375 2.0625 -0.109375 C 1.640625 -0.109375 0.9375 -0.453125 0.9375 -1.734375 Z M 0.9375 -1.734375 "/>
</symbol>
<symbol overflow="visible" id="glyph1-0">
<path style="stroke:none;" d=""/>
</symbol>
<symbol overflow="visible" id="glyph1-1">
<path style="stroke:none;" d="M 1.53125 -0.421875 C 1.53125 -0.65625 1.34375 -0.84375 1.109375 -0.84375 C 0.875 -0.84375 0.6875 -0.65625 0.6875 -0.421875 C 0.6875 -0.1875 0.875 0 1.109375 0 C 1.34375 0 1.53125 -0.1875 1.53125 -0.421875 Z M 1.53125 -0.421875 "/>
</symbol>
<symbol overflow="visible" id="glyph2-0">
<path style="stroke:none;" d=""/>
</symbol>
<symbol overflow="visible" id="glyph2-1">
<path style="stroke:none;" d="M 5.25 -1.828125 C 5.390625 -1.828125 5.53125 -1.828125 5.53125 -1.984375 C 5.53125 -2.15625 5.390625 -2.15625 5.25 -2.15625 L 0.9375 -2.15625 C 0.8125 -2.15625 0.65625 -2.15625 0.65625 -1.984375 C 0.65625 -1.828125 0.8125 -1.828125 0.9375 -1.828125 Z M 5.25 -1.828125 "/>
</symbol>
<symbol overflow="visible" id="glyph3-0">
<path style="stroke:none;" d=""/>
</symbol>
<symbol overflow="visible" id="glyph3-1">
<path style="stroke:none;" d="M -2.96875 -4.125 C -2.96875 -4.234375 -2.96875 -4.515625 -3.25 -4.515625 C -3.4375 -4.515625 -3.4375 -4.34375 -3.4375 -4.203125 L -3.4375 -2.390625 C -3.4375 -1.1875 -2.125 -0.296875 -1.171875 -0.296875 C -0.46875 -0.296875 0.09375 -0.765625 0.09375 -1.5 C 0.09375 -2.4375 -0.875 -3.5 -2.109375 -3.5 C -2.234375 -3.5 -2.625 -3.5 -2.96875 -3.25 Z M -0.09375 -1.5 C -0.09375 -1.109375 -0.375 -0.796875 -0.953125 -0.796875 C -1.1875 -0.796875 -1.84375 -0.890625 -2.3125 -1.171875 C -2.859375 -1.5 -2.96875 -1.984375 -2.96875 -2.25 C -2.96875 -2.921875 -2.453125 -2.984375 -2.203125 -2.984375 C -1.828125 -2.984375 -1.171875 -2.828125 -0.765625 -2.5625 C -0.296875 -2.25 -0.09375 -1.8125 -0.09375 -1.5 Z M -0.09375 -1.5 "/>
</symbol>
<symbol overflow="visible" id="glyph4-0">
<path style="stroke:none;" d=""/>
</symbol>
<symbol overflow="visible" id="glyph4-1">
<path style="stroke:none;" d="M 1.90625 -2.640625 C 1.890625 -2.640625 1.875 -2.640625 1.734375 -2.5 C 0.734375 -1.5 -0.765625 -1.25 -1.984375 -1.25 C -3.375 -1.25 -4.765625 -1.546875 -5.765625 -2.53125 C -5.859375 -2.640625 -5.875 -2.640625 -5.890625 -2.640625 C -5.953125 -2.640625 -5.96875 -2.609375 -5.96875 -2.5625 C -5.96875 -2.484375 -5.4375 -1.765625 -4.421875 -1.296875 C -3.546875 -0.890625 -2.65625 -0.78125 -1.984375 -0.78125 C -1.375 -0.78125 -0.40625 -0.875 0.5 -1.3125 C 1.46875 -1.796875 1.984375 -2.484375 1.984375 -2.5625 C 1.984375 -2.609375 1.96875 -2.640625 1.90625 -2.640625 Z M 1.90625 -2.640625 "/>
</symbol>
<symbol overflow="visible" id="glyph4-2">
<path style="stroke:none;" d="M -5.265625 -1.921875 C -5.4375 -1.84375 -5.4375 -1.828125 -5.4375 -1.640625 L -5.4375 -0.296875 L -5.203125 -0.296875 L -5.203125 -0.484375 C -5.203125 -1.09375 -5.109375 -1.109375 -4.828125 -1.109375 L -0.84375 -1.109375 C -0.625 -1.109375 -0.25 -1.109375 -0.25 -0.296875 L 0 -0.296875 C -0.015625 -0.578125 -0.03125 -0.96875 -0.03125 -1.234375 C -0.03125 -1.484375 -0.015625 -1.875 0 -2.15625 L -0.25 -2.15625 C -0.25 -1.34375 -0.625 -1.34375 -0.84375 -1.34375 L -5.125 -1.34375 L -0.171875 -3.265625 C -0.078125 -3.3125 0 -3.34375 0 -3.421875 C 0 -3.515625 -0.0625 -3.53125 -0.15625 -3.5625 L -5.203125 -5.53125 L -0.625 -5.53125 C -0.328125 -5.53125 -0.25 -5.515625 -0.25 -4.90625 L -0.25 -4.71875 L 0 -4.71875 C -0.03125 -5.015625 -0.03125 -5.546875 -0.03125 -5.859375 C -0.03125 -6.171875 -0.03125 -6.703125 0 -7 L -0.25 -7 L -0.25 -6.8125 C -0.25 -6.203125 -0.328125 -6.1875 -0.625 -6.1875 L -4.828125 -6.1875 C -5.109375 -6.1875 -5.203125 -6.203125 -5.203125 -6.8125 L -5.203125 -7 L -5.4375 -7 L -5.4375 -5.65625 C -5.4375 -5.453125 -5.4375 -5.453125 -5.296875 -5.390625 L -0.8125 -3.65625 Z M -5.265625 -1.921875 "/>
</symbol>
<symbol overflow="visible" id="glyph4-3">
<path style="stroke:none;" d="M -2.515625 -1.8125 L -2.515625 -3.15625 C -2.515625 -4.109375 -3.15625 -4.96875 -3.953125 -4.96875 C -4.734375 -4.96875 -5.4375 -4.1875 -5.4375 -3.09375 L -5.4375 -0.28125 L -5.203125 -0.28125 L -5.203125 -0.46875 C -5.203125 -1.078125 -5.109375 -1.09375 -4.828125 -1.09375 L -0.625 -1.09375 C -0.328125 -1.09375 -0.25 -1.078125 -0.25 -0.46875 L -0.25 -0.28125 L 0 -0.28125 C -0.03125 -0.5625 -0.03125 -1.140625 -0.03125 -1.453125 C -0.03125 -1.75 -0.03125 -2.34375 0 -2.625 L -0.25 -2.625 L -0.25 -2.4375 C -0.25 -1.828125 -0.328125 -1.8125 -0.625 -1.8125 Z M -2.71875 -1.78125 L -4.875 -1.78125 C -5.140625 -1.78125 -5.203125 -1.796875 -5.203125 -2.171875 L -5.203125 -2.890625 C -5.203125 -4.15625 -4.34375 -4.15625 -3.953125 -4.15625 C -3.578125 -4.15625 -2.71875 -4.15625 -2.71875 -2.890625 Z M -2.71875 -1.78125 "/>
</symbol>
<symbol overflow="visible" id="glyph4-4">
<path style="stroke:none;" d="M -0.609375 -2.65625 C -0.28125 -2.6875 0.046875 -2.90625 0.046875 -3.28125 C 0.046875 -3.4375 -0.0625 -3.921875 -0.703125 -3.921875 L -1.15625 -3.921875 L -1.15625 -3.734375 L -0.703125 -3.734375 C -0.25 -3.734375 -0.203125 -3.53125 -0.203125 -3.4375 C -0.203125 -3.171875 -0.5625 -3.140625 -0.59375 -3.140625 L -2.1875 -3.140625 C -2.53125 -3.140625 -2.84375 -3.140625 -3.125 -2.859375 C -3.4375 -2.546875 -3.5625 -2.15625 -3.5625 -1.765625 C -3.5625 -1.109375 -3.203125 -0.5625 -2.671875 -0.5625 C -2.4375 -0.5625 -2.296875 -0.71875 -2.296875 -0.9375 C -2.296875 -1.15625 -2.453125 -1.296875 -2.65625 -1.296875 C -2.75 -1.296875 -3.015625 -1.265625 -3.03125 -0.890625 C -3.3125 -1.109375 -3.390625 -1.5 -3.390625 -1.75 C -3.390625 -2.140625 -3.078125 -2.59375 -2.375 -2.59375 L -2.078125 -2.59375 C -2.0625 -2.1875 -2.03125 -1.640625 -1.796875 -1.125 C -1.515625 -0.53125 -1.109375 -0.328125 -0.75 -0.328125 C -0.109375 -0.328125 0.09375 -1.109375 0.09375 -1.609375 C 0.09375 -2.140625 -0.234375 -2.5 -0.609375 -2.65625 Z M -1.90625 -2.59375 L -1.109375 -2.59375 C -0.359375 -2.59375 -0.09375 -2.03125 -0.09375 -1.671875 C -0.09375 -1.28125 -0.359375 -0.953125 -0.765625 -0.953125 C -1.203125 -0.953125 -1.859375 -1.28125 -1.90625 -2.59375 Z M -1.90625 -2.59375 "/>
</symbol>
<symbol overflow="visible" id="glyph4-5">
<path style="stroke:none;" d="M -1.984375 -2.296875 C -2.609375 -2.296875 -3.578125 -2.21875 -4.484375 -1.78125 C -5.453125 -1.296875 -5.96875 -0.609375 -5.96875 -0.53125 C -5.96875 -0.484375 -5.9375 -0.453125 -5.890625 -0.453125 C -5.875 -0.453125 -5.859375 -0.453125 -5.71875 -0.609375 C -4.921875 -1.390625 -3.65625 -1.84375 -1.984375 -1.84375 C -0.625 -1.84375 0.765625 -1.546875 1.78125 -0.5625 C 1.875 -0.453125 1.890625 -0.453125 1.90625 -0.453125 C 1.953125 -0.453125 1.984375 -0.484375 1.984375 -0.53125 C 1.984375 -0.609375 1.453125 -1.328125 0.4375 -1.796875 C -0.4375 -2.203125 -1.328125 -2.296875 -1.984375 -2.296875 Z M -1.984375 -2.296875 "/>
</symbol>
</g>
<clipPath id="clip1">
  <path d="M 34.535156 12 L 189.953125 12 L 189.953125 128 L 34.535156 128 Z M 34.535156 12 "/>
</clipPath>
<clipPath id="clip2">
  <path d="M 34.535156 37 L 189.953125 37 L 189.953125 103 L 34.535156 103 Z M 34.535156 37 "/>
</clipPath>
</defs>
<g id="surface1">
<path style="fill:none;stroke-width:0.19925;stroke-linecap:butt;stroke-linejoin:miter;stroke:rgb(50%,50%,50%);stroke-opacity:1;stroke-miterlimit:10;" d="M -0.00205469 0.000695312 L -0.00205469 4.253625 M 48.567281 0.000695312 L 48.567281 4.253625 M 97.136617 0.000695312 L 97.136617 4.253625 M 145.705953 0.000695312 L 145.705953 4.253625 M 194.270406 0.000695312 L 194.270406 4.253625 M -0.00205469 161.39718 L -0.00205469 157.14425 M 48.567281 161.39718 L 48.567281 157.14425 M 97.136617 161.39718 L 97.136617 157.14425 M 145.705953 161.39718 L 145.705953 157.14425 M 194.270406 161.39718 L 194.270406 157.14425 " transform="matrix(0.8,0,0,-0.8,34.5368,134.3404)"/>
<path style="fill:none;stroke-width:0.19925;stroke-linecap:butt;stroke-linejoin:miter;stroke:rgb(50%,50%,50%);stroke-opacity:1;stroke-miterlimit:10;" d="M -0.00205469 0.000695312 L 4.250875 0.000695312 M -0.00205469 40.347375 L 4.250875 40.347375 M -0.00205469 80.698937 L 4.250875 80.698937 M -0.00205469 121.045617 L 4.250875 121.045617 M -0.00205469 161.39718 L 4.250875 161.39718 M 194.270406 0.000695312 L 190.022359 0.000695312 M 194.270406 40.347375 L 190.022359 40.347375 M 194.270406 80.698937 L 190.022359 80.698937 M 194.270406 121.045617 L 190.022359 121.045617 M 194.270406 161.39718 L 190.022359 161.39718 " transform="matrix(0.8,0,0,-0.8,34.5368,134.3404)"/>
<path style="fill:none;stroke-width:0.3985;stroke-linecap:butt;stroke-linejoin:miter;stroke:rgb(0%,0%,0%);stroke-opacity:1;stroke-miterlimit:10;" d="M -0.00205469 0.000695312 L -0.00205469 161.39718 L 194.270406 161.39718 L 194.270406 0.000695312 Z M -0.00205469 0.000695312 " transform="matrix(0.8,0,0,-0.8,34.5368,134.3404)"/>
<g style="fill:rgb(0%,0%,0%);fill-opacity:1;">
  <use xlink:href="#glyph0-1" x="32.544" y="142.2924"/>
</g>
<g style="fill:rgb(0%,0%,0%);fill-opacity:1;">
  <use xlink:href="#glyph0-1" x="68.2984" y="142.2924"/>
</g>
<g style="fill:rgb(0%,0%,0%);fill-opacity:1;">
  <use xlink:href="#glyph1-1" x="72.284" y="142.2924"/>
</g>
<g style="fill:rgb(0%,0%,0%);fill-opacity:1;">
  <use xlink:href="#glyph0-2" x="74.4976" y="142.2924"/>
</g>
<g style="fill:rgb(0%,0%,0%);fill-opacity:1;">
  <use xlink:href="#glyph0-3" x="110.252" y="142.2924"/>
</g>
<g style="fill:rgb(0%,0%,0%);fill-opacity:1;">
  <use xlink:href="#glyph0-3" x="146.0064" y="142.2924"/>
</g>
<g style="fill:rgb(0%,0%,0%);fill-opacity:1;">
  <use xlink:href="#glyph1-1" x="149.992" y="142.2924"/>
</g>
<g style="fill:rgb(0%,0%,0%);fill-opacity:1;">
  <use xlink:href="#glyph0-2" x="152.2056" y="142.2924"/>
</g>
<g style="fill:rgb(0%,0%,0%);fill-opacity:1;">
  <use xlink:href="#glyph0-4" x="187.96" y="142.2924"/>
</g>
<g style="fill:rgb(0%,0%,0%);fill-opacity:1;">
  <use xlink:href="#glyph2-1" x="21.5368" y="136.5764"/>
</g>
<g style="fill:rgb(0%,0%,0%);fill-opacity:1;">
  <use xlink:href="#glyph0-4" x="27.736" y="136.5764"/>
</g>
<g style="fill:rgb(0%,0%,0%);fill-opacity:1;">
  <use xlink:href="#glyph2-1" x="21.5368" y="104.298"/>
</g>
<g style="fill:rgb(0%,0%,0%);fill-opacity:1;">
  <use xlink:href="#glyph0-3" x="27.736" y="104.298"/>
</g>
<g style="fill:rgb(0%,0%,0%);fill-opacity:1;">
  <use xlink:href="#glyph0-1" x="27.736" y="72.3508"/>
</g>
<g style="fill:rgb(0%,0%,0%);fill-opacity:1;">
  <use xlink:href="#glyph0-3" x="27.736" y="40.0716"/>
</g>
<g style="fill:rgb(0%,0%,0%);fill-opacity:1;">
  <use xlink:href="#glyph0-4" x="27.736" y="7.7932"/>
</g>
<g clip-path="url(#clip1)" clip-rule="nonzero">
<path style="fill:none;stroke-width:0.79701;stroke-linecap:butt;stroke-linejoin:miter;stroke:rgb(0%,0%,0%);stroke-opacity:1;stroke-dasharray:2.98883,2.98883;stroke-miterlimit:10;" d="M -0.00205469 141.221398 L 194.270406 20.176477 " transform="matrix(0.8,0,0,-0.8,34.5368,134.3404)"/>
</g>
<g clip-path="url(#clip2)" clip-rule="nonzero">
<path style="fill:none;stroke-width:0.79701;stroke-linecap:butt;stroke-linejoin:miter;stroke:rgb(100%,0%,0%);stroke-opacity:1;stroke-miterlimit:10;" d="M -0.00205469 121.045617 L 97.136617 121.045617 L 97.136617 40.347375 L 194.270406 40.347375 " transform="matrix(0.8,0,0,-0.8,34.5368,134.3404)"/>
</g>
<g style="fill:rgb(0%,0%,0%);fill-opacity:1;">
  <use xlink:href="#glyph0-5" x="99.072" y="155.0892"/>
</g>
<g style="fill:rgb(0%,0%,0%);fill-opacity:1;">
  <use xlink:href="#glyph0-6" x="105.932645" y="155.0892"/>
  <use xlink:href="#glyph0-7" x="109.032209" y="155.0892"/>
  <use xlink:href="#glyph0-7" x="115.673677" y="155.0892"/>
  <use xlink:href="#glyph0-8" x="122.315144" y="155.0892"/>
</g>
<g style="fill:rgb(0%,0%,0%);fill-opacity:1;">
  <use xlink:href="#glyph3-1" x="8.6336" y="84.8772"/>
</g>
<g style="fill:rgb(0%,0%,0%);fill-opacity:1;">
  <use xlink:href="#glyph4-1" x="8.6336" y="77.3796"/>
  <use xlink:href="#glyph4-2" x="8.6336" y="74.280036"/>
  <use xlink:href="#glyph4-3" x="8.6336" y="66.973864"/>
</g>
<g style="fill:rgb(0%,0%,0%);fill-opacity:1;">
  <use xlink:href="#glyph4-4" x="8.6336" y="61.772589"/>
  <use xlink:href="#glyph4-5" x="8.6336" y="57.787549"/>
</g>
<path style="fill-rule:nonzero;fill:rgb(100%,100%,100%);fill-opacity:1;stroke-width:0.3985;stroke-linecap:butt;stroke-linejoin:miter;stroke:rgb(0%,0%,0%);stroke-opacity:1;stroke-miterlimit:10;" d="M 96.804586 129.409875 L 190.188375 129.409875 L 190.188375 157.969445 L 96.804586 157.969445 Z M 96.804586 129.409875 " transform="matrix(0.8,0,0,-0.8,34.5368,134.3404)"/>
<path style="fill:none;stroke-width:0.79701;stroke-linecap:butt;stroke-linejoin:miter;stroke:rgb(0%,0%,0%);stroke-opacity:1;stroke-dasharray:2.98883,2.98883;stroke-miterlimit:10;" d="M -0.000625 -0.000203125 L 17.006211 -0.000203125 " transform="matrix(0.8,0,0,-0.8,114.688,14.4764)"/>
<g style="fill:rgb(0%,0%,0%);fill-opacity:1;">
  <use xlink:href="#glyph0-9" x="130.2072" y="16.6012"/>
  <use xlink:href="#glyph0-10" x="136.18476" y="16.6012"/>
  <use xlink:href="#glyph0-10" x="140.612936" y="16.6012"/>
  <use xlink:href="#glyph0-11" x="145.041113" y="16.6012"/>
  <use xlink:href="#glyph0-12" x="148.162993" y="16.6012"/>
</g>
<g style="fill:rgb(0%,0%,0%);fill-opacity:1;">
  <use xlink:href="#glyph0-5" x="151.924871" y="16.6012"/>
  <use xlink:href="#glyph0-13" x="156.131479" y="16.6012"/>
  <use xlink:href="#glyph0-7" x="158.345567" y="16.6012"/>
  <use xlink:href="#glyph0-14" x="164.987035" y="16.6012"/>
  <use xlink:href="#glyph0-15" x="168.972075" y="16.6012"/>
  <use xlink:href="#glyph0-13" x="172.071639" y="16.6012"/>
  <use xlink:href="#glyph0-12" x="174.285727" y="16.6012"/>
  <use xlink:href="#glyph0-16" x="178.270767" y="16.6012"/>
</g>
<path style="fill:none;stroke-width:0.79701;stroke-linecap:butt;stroke-linejoin:miter;stroke:rgb(100%,0%,0%);stroke-opacity:1;stroke-miterlimit:10;" d="M -0.000625 0.00164063 L 17.006211 0.00164063 " transform="matrix(0.8,0,0,-0.8,114.688,24.306)"/>
<g style="fill:rgb(0%,0%,0%);fill-opacity:1;">
  <use xlink:href="#glyph0-17" x="146.324" y="26.4316"/>
  <use xlink:href="#glyph0-5" x="151.748436" y="26.4316"/>
  <use xlink:href="#glyph0-14" x="155.955045" y="26.4316"/>
  <use xlink:href="#glyph0-18" x="159.940085" y="26.4316"/>
  <use xlink:href="#glyph0-15" x="163.481988" y="26.4316"/>
</g>
</g>
</svg>
